﻿id,name,kabupaten,
41454, BANJARHARJO, 41165,
41188, BANTARKAWUNG, 41165,
41309, BREBES, 41165,
41400, BULAKAMBA, 41165,
41207, BUMIAYU, 41165,
41265, JATIBARANG, 41165,
41344, KERSANA, 41165,
41432, KETANGGUNGAN, 41165,
41420, LARANGAN, 41165,
41358, LOSARI, 41165,
41223, PAGUYANGAN, 41165,
41166, SALEM, 41165,
41236, SIRAMPOG, 41165,
41333, SONGGOM, 41165,
41381, TANJUNG, 41165,
41250, TONJONG, 41165,
41288, WANASARI, 41165,