﻿33;JAWATENGAH;3329;BREBES;332901;Salem;3329012001;Banjaran
33;JAWATENGAH;3329;BREBES;332901;Salem;3329012002;Bentar
33;JAWATENGAH;3329;BREBES;332901;Salem;3329012003;Bentarsari
33;JAWATENGAH;3329;BREBES;332901;Salem;3329012004;Capar
33;JAWATENGAH;3329;BREBES;332901;Salem;3329012005;Ciputih
33;JAWATENGAH;3329;BREBES;332901;Salem;3329012006;Citimbang
33;JAWATENGAH;3329;BREBES;332901;Salem;3329012007;Ganggawang
33;JAWATENGAH;3329;BREBES;332901;Salem;3329012008;Gandoang
33;JAWATENGAH;3329;BREBES;332901;Salem;3329012009;Gunungjaya
33;JAWATENGAH;3329;BREBES;332901;Salem;3329012010;Gununglarang
33;JAWATENGAH;3329;BREBES;332901;Salem;3329012011;Gunungsugih
33;JAWATENGAH;3329;BREBES;332901;Salem;3329012012;Gunungtajem
33;JAWATENGAH;3329;BREBES;332901;Salem;3329012013;Indrajaya
33;JAWATENGAH;3329;BREBES;332901;Salem;3329012014;Kadumanis
33;JAWATENGAH;3329;BREBES;332901;Salem;3329012015;Pabuaran
33;JAWATENGAH;3329;BREBES;332901;Salem;3329012016;Pasirpanjang
33;JAWATENGAH;3329;BREBES;332901;Salem;3329012017;Salem
33;JAWATENGAH;3329;BREBES;332901;Salem;3329012018;Tembongraja
33;JAWATENGAH;3329;BREBES;332901;Salem;3329012019;Wanoja
33;JAWATENGAH;3329;BREBES;332901;Salem;3329012020;Winduasri
33;JAWATENGAH;3329;BREBES;332901;Salem;3329012021;Windusakti
33;JAWATENGAH;3329;BREBES;332902;Bantarkawung;3329022001;Bangbayang
33;JAWATENGAH;3329;BREBES;332902;Bantarkawung;3329022002;Banjarsari
33;JAWATENGAH;3329;BREBES;332902;Bantarkawung;3329022003;Bantarkawung
33;JAWATENGAH;3329;BREBES;332902;Bantarkawung;3329022004;Bantarwaru
33;JAWATENGAH;3329;BREBES;332902;Bantarkawung;3329022005;Cibentang
33;JAWATENGAH;3329;BREBES;332902;Bantarkawung;3329022006;Cinanas
33;JAWATENGAH;3329;BREBES;332902;Bantarkawung;3329022007;Ciomas
33;JAWATENGAH;3329;BREBES;332902;Bantarkawung;3329022008;Jipang
33;JAWATENGAH;3329;BREBES;332902;Bantarkawung;3329022009;Karangpari
33;JAWATENGAH;3329;BREBES;332902;Bantarkawung;3329022010;Kebandungan
33;JAWATENGAH;3329;BREBES;332902;Bantarkawung;3329022011;Legok
33;JAWATENGAH;3329;BREBES;332902;Bantarkawung;3329022012;Pangebatan
33;JAWATENGAH;3329;BREBES;332902;Bantarkawung;3329022013;Pengarasan
33;JAWATENGAH;3329;BREBES;332902;Bantarkawung;3329022014;Sindangwangi
33;JAWATENGAH;3329;BREBES;332902;Bantarkawung;3329022015;Tambakserang
33;JAWATENGAH;3329;BREBES;332902;Bantarkawung;3329022016;Terlaya
33;JAWATENGAH;3329;BREBES;332902;Bantarkawung;3329022017;Telaga
33;JAWATENGAH;3329;BREBES;332902;Bantarkawung;3329022018;Waru
33;JAWATENGAH;3329;BREBES;332903;Bumiayu;3329032001;Adisana
33;JAWATENGAH;3329;BREBES;332903;Bumiayu;3329032002;Bumiayu
33;JAWATENGAH;3329;BREBES;332903;Bumiayu;3329032003;Dukuhturi
33;JAWATENGAH;3329;BREBES;332903;Bumiayu;3329032004;Jatisawit
33;JAWATENGAH;3329;BREBES;332903;Bumiayu;3329032005;Kalierang
33;JAWATENGAH;3329;BREBES;332903;Bumiayu;3329032006;Kalilangkap
33;JAWATENGAH;3329;BREBES;332903;Bumiayu;3329032007;Kalinusu
33;JAWATENGAH;3329;BREBES;332903;Bumiayu;3329032008;Kalisumur
33;JAWATENGAH;3329;BREBES;332903;Bumiayu;3329032009;Kaliwadas
33;JAWATENGAH;3329;BREBES;332903;Bumiayu;3329032010;Langkap
33;JAWATENGAH;3329;BREBES;332903;Bumiayu;3329032011;Laren
33;JAWATENGAH;3329;BREBES;332903;Bumiayu;3329032012;Negaradaha
33;JAWATENGAH;3329;BREBES;332903;Bumiayu;3329032013;Pamijen
33;JAWATENGAH;3329;BREBES;332903;Bumiayu;3329032014;Penggarutan
33;JAWATENGAH;3329;BREBES;332903;Bumiayu;3329032015;Pruwatan
33;JAWATENGAH;3329;BREBES;332904;Paguyangan;3329042001;Cilibur
33;JAWATENGAH;3329;BREBES;332904;Paguyangan;3329042002;Cipetung
33;JAWATENGAH;3329;BREBES;332904;Paguyangan;3329042003;Kedungoleng
33;JAWATENGAH;3329;BREBES;332904;Paguyangan;3329042004;Kretek
33;JAWATENGAH;3329;BREBES;332904;Paguyangan;3329042005;Pagojengan
33;JAWATENGAH;3329;BREBES;332904;Paguyangan;3329042006;Paguyangan
33;JAWATENGAH;3329;BREBES;332904;Paguyangan;3329042007;Pakujati
33;JAWATENGAH;3329;BREBES;332904;Paguyangan;3329042008;Pandansari
33;JAWATENGAH;3329;BREBES;332904;Paguyangan;3329042009;Ragatunjung
33;JAWATENGAH;3329;BREBES;332904;Paguyangan;3329042010;Taraban
33;JAWATENGAH;3329;BREBES;332904;Paguyangan;3329042011;Wanatirta
33;JAWATENGAH;3329;BREBES;332904;Paguyangan;3329042012;Winduaji
33;JAWATENGAH;3329;BREBES;332905;Sirampog;3329052001;Batursari
33;JAWATENGAH;3329;BREBES;332905;Sirampog;3329052002;Benda
33;JAWATENGAH;3329;BREBES;332905;Sirampog;3329052003;Buniwah
33;JAWATENGAH;3329;BREBES;332905;Sirampog;3329052004;Dawuhan
33;JAWATENGAH;3329;BREBES;332905;Sirampog;3329052005;Igirklanceng
33;JAWATENGAH;3329;BREBES;332905;Sirampog;3329052006;Kaligiri
33;JAWATENGAH;3329;BREBES;332905;Sirampog;3329052007;Kaliloka
33;JAWATENGAH;3329;BREBES;332905;Sirampog;3329052008;Manggis
33;JAWATENGAH;3329;BREBES;332905;Sirampog;3329052009;Mendala
33;JAWATENGAH;3329;BREBES;332905;Sirampog;3329052010;Mlayang
33;JAWATENGAH;3329;BREBES;332905;Sirampog;3329052011;Sridadi
33;JAWATENGAH;3329;BREBES;332905;Sirampog;3329052012;Plompong
33;JAWATENGAH;3329;BREBES;332905;Sirampog;3329052013;Wanareja
33;JAWATENGAH;3329;BREBES;332906;Tonjong;3329062001;Galuh Timur
33;JAWATENGAH;3329;BREBES;332906;Tonjong;3329062002;Kalijurang
33;JAWATENGAH;3329;BREBES;332906;Tonjong;3329062003;Karangjongkeng
33;JAWATENGAH;3329;BREBES;332906;Tonjong;3329062004;Kutamendala
33;JAWATENGAH;3329;BREBES;332906;Tonjong;3329062005;Kutayu
33;JAWATENGAH;3329;BREBES;332906;Tonjong;3329062006;Linggapura
33;JAWATENGAH;3329;BREBES;332906;Tonjong;3329062007;Negarayu
33;JAWATENGAH;3329;BREBES;332906;Tonjong;3329062008;Pepedan
33;JAWATENGAH;3329;BREBES;332906;Tonjong;3329062009;Purbayasa
33;JAWATENGAH;3329;BREBES;332906;Tonjong;3329062010;Rajawetan
33;JAWATENGAH;3329;BREBES;332906;Tonjong;3329062011;Purwodadi
33;JAWATENGAH;3329;BREBES;332906;Tonjong;3329062012;Tanggeran
33;JAWATENGAH;3329;BREBES;332906;Tonjong;3329062013;Tonjong
33;JAWATENGAH;3329;BREBES;332906;Tonjong;3329062014;Watujaya
33;JAWATENGAH;3329;BREBES;332907;Jatibarang;3329072001;Bojong
33;JAWATENGAH;3329;BREBES;332907;Jatibarang;3329072002;Buaran
33;JAWATENGAH;3329;BREBES;332907;Jatibarang;3329072003;Janegara
33;JAWATENGAH;3329;BREBES;332907;Jatibarang;3329072004;Jatibarang Kidul
33;JAWATENGAH;3329;BREBES;332907;Jatibarang;3329072005;Jatibarang Lor
33;JAWATENGAH;3329;BREBES;332907;Jatibarang;3329072006;Kalialang
33;JAWATENGAH;3329;BREBES;332907;Jatibarang;3329072007;Kalipucang
33;JAWATENGAH;3329;BREBES;332907;Jatibarang;3329072008;Karanglo
33;JAWATENGAH;3329;BREBES;332907;Jatibarang;3329072009;Kebogadung
33;JAWATENGAH;3329;BREBES;332907;Jatibarang;3329072010;Kebonagung
33;JAWATENGAH;3329;BREBES;332907;Jatibarang;3329072011;Kedungtukang
33;JAWATENGAH;3329;BREBES;332907;Jatibarang;3329072012;Kemiriamba
33;JAWATENGAH;3329;BREBES;332907;Jatibarang;3329072013;Kendawa
33;JAWATENGAH;3329;BREBES;332907;Jatibarang;3329072014;Kertasinduyasa
33;JAWATENGAH;3329;BREBES;332907;Jatibarang;3329072015;Klampis
33;JAWATENGAH;3329;BREBES;332907;Jatibarang;3329072016;Klikiran
33;JAWATENGAH;3329;BREBES;332907;Jatibarang;3329072017;Kramat
33;JAWATENGAH;3329;BREBES;332907;Jatibarang;3329072018;Pamengger
33;JAWATENGAH;3329;BREBES;332907;Jatibarang;3329072019;Pedeslohor
33;JAWATENGAH;3329;BREBES;332907;Jatibarang;3329072020;Rengasbandung
33;JAWATENGAH;3329;BREBES;332907;Jatibarang;3329072021;Tegalwulung
33;JAWATENGAH;3329;BREBES;332907;Jatibarang;3329072022;Tembelang
33;JAWATENGAH;3329;BREBES;332908;Wanasari;3329082001;Glonggong
33;JAWATENGAH;3329;BREBES;332908;Wanasari;3329082002;Dukuhwringin
33;JAWATENGAH;3329;BREBES;332908;Wanasari;3329082003;Dumeling
33;JAWATENGAH;3329;BREBES;332908;Wanasari;3329082004;Jagalempeni
33;JAWATENGAH;3329;BREBES;332908;Wanasari;3329082005;Keboledan
33;JAWATENGAH;3329;BREBES;332908;Wanasari;3329082006;Kertabesuki
33;JAWATENGAH;3329;BREBES;332908;Wanasari;3329082007;Klampok
33;JAWATENGAH;3329;BREBES;332908;Wanasari;3329082008;Kupu
33;JAWATENGAH;3329;BREBES;332908;Wanasari;3329082009;Lengkong
33;JAWATENGAH;3329;BREBES;332908;Wanasari;3329082010;Pebatan
33;JAWATENGAH;3329;BREBES;332908;Wanasari;3329082011;Pesantunan
33;JAWATENGAH;3329;BREBES;332908;Wanasari;3329082012;Sawojajar
33;JAWATENGAH;3329;BREBES;332908;Wanasari;3329082013;Siasem
33;JAWATENGAH;3329;BREBES;332908;Wanasari;3329082014;Sidamulya
33;JAWATENGAH;3329;BREBES;332908;Wanasari;3329082015;Sigentong
33;JAWATENGAH;3329;BREBES;332908;Wanasari;3329082016;Sisalam
33;JAWATENGAH;3329;BREBES;332908;Wanasari;3329082017;Siwungkuk
33;JAWATENGAH;3329;BREBES;332908;Wanasari;3329082018;Tanjungsari
33;JAWATENGAH;3329;BREBES;332908;Wanasari;3329082019;Tegalgandu
33;JAWATENGAH;3329;BREBES;332908;Wanasari;3329082020;Wanasari
33;JAWATENGAH;3329;BREBES;332909;Brebes;3329092001;Banjaranyar
33;JAWATENGAH;3329;BREBES;332909;Brebes;3329092004;Kaligangsa Kulon
33;JAWATENGAH;3329;BREBES;332909;Brebes;3329092005;Kaligangsa Wetan
33;JAWATENGAH;3329;BREBES;332909;Brebes;3329092006;Kalimati
33;JAWATENGAH;3329;BREBES;332909;Brebes;3329092007;Kaliwlingi
33;JAWATENGAH;3329;BREBES;332909;Brebes;3329092008;Kedunguter
33;JAWATENGAH;3329;BREBES;332909;Brebes;3329092009;Krasak
33;JAWATENGAH;3329;BREBES;332909;Brebes;3329092010;Lembarawa
33;JAWATENGAH;3329;BREBES;332909;Brebes;3329092013;Padasugih
33;JAWATENGAH;3329;BREBES;332909;Brebes;3329092014;Pagejugan
33;JAWATENGAH;3329;BREBES;332909;Brebes;3329092016;Pemaron
33;JAWATENGAH;3329;BREBES;332909;Brebes;3329092017;Pulosari
33;JAWATENGAH;3329;BREBES;332909;Brebes;3329092018;Randusanga Kulon
33;JAWATENGAH;3329;BREBES;332909;Brebes;3329092019;Randusanga Wetan
33;JAWATENGAH;3329;BREBES;332909;Brebes;3329092020;Sigambir
33;JAWATENGAH;3329;BREBES;332909;Brebes;3329092021;Tengki
33;JAWATENGAH;3329;BREBES;332909;Brebes;3329092022;Terlangu
33;JAWATENGAH;3329;BREBES;332909;Brebes;3329092023;Wangandalem
33;JAWATENGAH;3329;BREBES;332910;Songgom;3329102001;Cenang
33;JAWATENGAH;3329;BREBES;332910;Songgom;3329102002;Dukuhmaja
33;JAWATENGAH;3329;BREBES;332910;Songgom;3329102003;Jatirokeh
33;JAWATENGAH;3329;BREBES;332910;Songgom;3329102004;Karang Sembung
33;JAWATENGAH;3329;BREBES;332910;Songgom;3329102005;Songgom
33;JAWATENGAH;3329;BREBES;332910;Songgom;3329102006;Wanacala
33;JAWATENGAH;3329;BREBES;332910;Songgom;3329102007;Wanatawang
33;JAWATENGAH;3329;BREBES;332910;Songgom;3329102008;Gegerkunci
33;JAWATENGAH;3329;BREBES;332910;Songgom;3329102009;Jatimakmur
33;JAWATENGAH;3329;BREBES;332910;Songgom;3329102010;Songgom Lor
33;JAWATENGAH;3329;BREBES;332911;Kersana;3329112001;Ciampel
33;JAWATENGAH;3329;BREBES;332911;Kersana;3329112002;Cigedog
33;JAWATENGAH;3329;BREBES;332911;Kersana;3329112003;Cikandang
33;JAWATENGAH;3329;BREBES;332911;Kersana;3329112004;Jagapura
33;JAWATENGAH;3329;BREBES;332911;Kersana;3329112005;Kemukten
33;JAWATENGAH;3329;BREBES;332911;Kersana;3329112006;Kradenan
33;JAWATENGAH;3329;BREBES;332911;Kersana;3329112007;Kersana
33;JAWATENGAH;3329;BREBES;332911;Kersana;3329112008;Kramatsampang
33;JAWATENGAH;3329;BREBES;332911;Kersana;3329112009;Kubangpari
33;JAWATENGAH;3329;BREBES;332911;Kersana;3329112010;Limbangan
33;JAWATENGAH;3329;BREBES;332911;Kersana;3329112011;Pende
33;JAWATENGAH;3329;BREBES;332911;Kersana;3329112012;Sindangjaya
33;JAWATENGAH;3329;BREBES;332911;Kersana;3329112013;Sutamaja
33;JAWATENGAH;3329;BREBES;332912;Losari;3329122001;Babakan
33;JAWATENGAH;3329;BREBES;332912;Losari;3329122002;Blubuk
33;JAWATENGAH;3329;BREBES;332912;Losari;3329122003;Bojongsari
33;JAWATENGAH;3329;BREBES;332912;Losari;3329122004;Dukuhsalam
33;JAWATENGAH;3329;BREBES;332912;Losari;3329122005;Jatisawit
33;JAWATENGAH;3329;BREBES;332912;Losari;3329122006;Kalibuntu
33;JAWATENGAH;3329;BREBES;332912;Losari;3329122007;Karangdempel
33;JAWATENGAH;3329;BREBES;332912;Losari;3329122008;Karangjunti
33;JAWATENGAH;3329;BREBES;332912;Losari;3329122009;Karangsambung
33;JAWATENGAH;3329;BREBES;332912;Losari;3329122010;Kecipir
33;JAWATENGAH;3329;BREBES;332912;Losari;3329122011;Kedungneng
33;JAWATENGAH;3329;BREBES;332912;Losari;3329122012;Limbangan
33;JAWATENGAH;3329;BREBES;332912;Losari;3329122013;Losari Kidul
33;JAWATENGAH;3329;BREBES;332912;Losari;3329122014;Losari Lor
33;JAWATENGAH;3329;BREBES;332912;Losari;3329122015;Negla
33;JAWATENGAH;3329;BREBES;332912;Losari;3329122016;Pekauman
33;JAWATENGAH;3329;BREBES;332912;Losari;3329122017;Pengabean
33;JAWATENGAH;3329;BREBES;332912;Losari;3329122018;Prapag Kidul
33;JAWATENGAH;3329;BREBES;332912;Losari;3329122019;Prapag Lor
33;JAWATENGAH;3329;BREBES;332912;Losari;3329122020;Randegan
33;JAWATENGAH;3329;BREBES;332912;Losari;3329122021;Randusari
33;JAWATENGAH;3329;BREBES;332912;Losari;3329122022;Rungkang
33;JAWATENGAH;3329;BREBES;332913;Tanjung;3329132001;Karangreja
33;JAWATENGAH;3329;BREBES;332913;Tanjung;3329132002;Kedawung
33;JAWATENGAH;3329;BREBES;332913;Tanjung;3329132003;Kemurang Kulon
33;JAWATENGAH;3329;BREBES;332913;Tanjung;3329132004;Kemurang Wetan
33;JAWATENGAH;3329;BREBES;332913;Tanjung;3329132005;Krakahan
33;JAWATENGAH;3329;BREBES;332913;Tanjung;3329132006;Kubangputat
33;JAWATENGAH;3329;BREBES;332913;Tanjung;3329132007;Luwunggede
33;JAWATENGAH;3329;BREBES;332913;Tanjung;3329132008;Lemahabang
33;JAWATENGAH;3329;BREBES;332913;Tanjung;3329132009;Luwungbata
33;JAWATENGAH;3329;BREBES;332913;Tanjung;3329132010;Mundu
33;JAWATENGAH;3329;BREBES;332913;Tanjung;3329132011;Pejagan
33;JAWATENGAH;3329;BREBES;332913;Tanjung;3329132012;Pengaradan
33;JAWATENGAH;3329;BREBES;332913;Tanjung;3329132013;Sarireja
33;JAWATENGAH;3329;BREBES;332913;Tanjung;3329132014;Sengon
33;JAWATENGAH;3329;BREBES;332913;Tanjung;3329132015;Sidakaton
33;JAWATENGAH;3329;BREBES;332913;Tanjung;3329132016;Tanjung
33;JAWATENGAH;3329;BREBES;332913;Tanjung;3329132017;Tegongan
33;JAWATENGAH;3329;BREBES;332913;Tanjung;3329132018;Tengguli
33;JAWATENGAH;3329;BREBES;332914;Bulakamba;3329142001;Bangsri
33;JAWATENGAH;3329;BREBES;332914;Bulakamba;3329142002;Banjaratma
33;JAWATENGAH;3329;BREBES;332914;Bulakamba;3329142003;Bulakamba
33;JAWATENGAH;3329;BREBES;332914;Bulakamba;3329142004;Bulakparen
33;JAWATENGAH;3329;BREBES;332914;Bulakamba;3329142005;Bulusari
33;JAWATENGAH;3329;BREBES;332914;Bulakamba;3329142006;Cimohong
33;JAWATENGAH;3329;BREBES;332914;Bulakamba;3329142007;Cipelem
33;JAWATENGAH;3329;BREBES;332914;Bulakamba;3329142008;Dukuhlo
33;JAWATENGAH;3329;BREBES;332914;Bulakamba;3329142009;Grinting
33;JAWATENGAH;3329;BREBES;332914;Bulakamba;3329142010;Jubang
33;JAWATENGAH;3329;BREBES;332914;Bulakamba;3329142011;Karangsari
33;JAWATENGAH;3329;BREBES;332914;Bulakamba;3329142012;Kluwut
33;JAWATENGAH;3329;BREBES;332914;Bulakamba;3329142013;Luwungragi
33;JAWATENGAH;3329;BREBES;332914;Bulakamba;3329142014;Pakijangan
33;JAWATENGAH;3329;BREBES;332914;Bulakamba;3329142015;Petunjungan
33;JAWATENGAH;3329;BREBES;332914;Bulakamba;3329142016;Pulogading
33;JAWATENGAH;3329;BREBES;332914;Bulakamba;3329142017;Rancawuluh
33;JAWATENGAH;3329;BREBES;332914;Bulakamba;3329142018;Siwuluh
33;JAWATENGAH;3329;BREBES;332914;Bulakamba;3329142019;Tegalglagah
33;JAWATENGAH;3329;BREBES;332915;Larangan;3329152001;Kamal
33;JAWATENGAH;3329;BREBES;332915;Larangan;3329152002;Karangbale
33;JAWATENGAH;3329;BREBES;332915;Larangan;3329152003;Kedungbokor
33;JAWATENGAH;3329;BREBES;332915;Larangan;3329152004;Larangan
33;JAWATENGAH;3329;BREBES;332915;Larangan;3329152005;Luwunggede
33;JAWATENGAH;3329;BREBES;332915;Larangan;3329152006;Pamulihan
33;JAWATENGAH;3329;BREBES;332915;Larangan;3329152007;Rengaspendawa
33;JAWATENGAH;3329;BREBES;332915;Larangan;3329152008;Sitanggal
33;JAWATENGAH;3329;BREBES;332915;Larangan;3329152009;Slatri
33;JAWATENGAH;3329;BREBES;332915;Larangan;3329152010;Wlahar
33;JAWATENGAH;3329;BREBES;332915;Larangan;3329152011;Siandong
33;JAWATENGAH;3329;BREBES;332916;Ketanggungan;3329162001;Baros
33;JAWATENGAH;3329;BREBES;332916;Ketanggungan;3329162002;Buara
33;JAWATENGAH;3329;BREBES;332916;Ketanggungan;3329162003;Bulakelor
33;JAWATENGAH;3329;BREBES;332916;Ketanggungan;3329162004;Ciduwet
33;JAWATENGAH;3329;BREBES;332916;Ketanggungan;3329162005;Cikeusal Kidul
33;JAWATENGAH;3329;BREBES;332916;Ketanggungan;3329162006;Cikeusal Lor
33;JAWATENGAH;3329;BREBES;332916;Ketanggungan;3329162007;Ciseureuh
33;JAWATENGAH;3329;BREBES;332916;Ketanggungan;3329162008;Dukuhbadag
33;JAWATENGAH;3329;BREBES;332916;Ketanggungan;3329162009;Dukuhtengah
33;JAWATENGAH;3329;BREBES;332916;Ketanggungan;3329162010;Jemasih
33;JAWATENGAH;3329;BREBES;332916;Ketanggungan;3329162011;Karangbandung
33;JAWATENGAH;3329;BREBES;332916;Ketanggungan;3329162012;Ketanggungan
33;JAWATENGAH;3329;BREBES;332916;Ketanggungan;3329162013;Kubangjati
33;JAWATENGAH;3329;BREBES;332916;Ketanggungan;3329162014;Kubangwungu
33;JAWATENGAH;3329;BREBES;332916;Ketanggungan;3329162015;Kubangsari
33;JAWATENGAH;3329;BREBES;332916;Ketanggungan;3329162016;Pamedaran
33;JAWATENGAH;3329;BREBES;332916;Ketanggungan;3329162017;Sindangjaya
33;JAWATENGAH;3329;BREBES;332916;Ketanggungan;3329162018;Tanggungsari
33;JAWATENGAH;3329;BREBES;332916;Ketanggungan;3329162019;Karang Malang
33;JAWATENGAH;3329;BREBES;332916;Ketanggungan;3329162020;Dukuhturi
33;JAWATENGAH;3329;BREBES;332916;Ketanggungan;3329162021;Padakaton
33;JAWATENGAH;3329;BREBES;332917;Banjarharjo;3329172001;Bandungsari
33;JAWATENGAH;3329;BREBES;332917;Banjarharjo;3329172002;Banjarlor
33;JAWATENGAH;3329;BREBES;332917;Banjarharjo;3329172003;Banjarharjo
33;JAWATENGAH;3329;BREBES;332917;Banjarharjo;3329172004;Blandongan
33;JAWATENGAH;3329;BREBES;332917;Banjarharjo;3329172005;Ciawi
33;JAWATENGAH;3329;BREBES;332917;Banjarharjo;3329172006;Cibendung
33;JAWATENGAH;3329;BREBES;332917;Banjarharjo;3329172007;Cibuniwangi
33;JAWATENGAH;3329;BREBES;332917;Banjarharjo;3329172008;Cigadung
33;JAWATENGAH;3329;BREBES;332917;Banjarharjo;3329172009;Cihaur
33;JAWATENGAH;3329;BREBES;332917;Banjarharjo;3329172010;Cikakak
33;JAWATENGAH;3329;BREBES;332917;Banjarharjo;3329172011;Cikuya
33;JAWATENGAH;3329;BREBES;332917;Banjarharjo;3329172012;Cimunding
33;JAWATENGAH;3329;BREBES;332917;Banjarharjo;3329172013;Cipajang
33;JAWATENGAH;3329;BREBES;332917;Banjarharjo;3329172014;Dukuhjeruk
33;JAWATENGAH;3329;BREBES;332917;Banjarharjo;3329172015;Karangmaja
33;JAWATENGAH;3329;BREBES;332917;Banjarharjo;3329172016;Kertasari
33;JAWATENGAH;3329;BREBES;332917;Banjarharjo;3329172017;Kubangjero
33;JAWATENGAH;3329;BREBES;332917;Banjarharjo;3329172018;Malahayu
33;JAWATENGAH;3329;BREBES;332917;Banjarharjo;3329172019;Parereja
33;JAWATENGAH;3329;BREBES;332917;Banjarharjo;3329172020;Penanggapan
33;JAWATENGAH;3329;BREBES;332917;Banjarharjo;3329172021;Pende
33;JAWATENGAH;3329;BREBES;332917;Banjarharjo;3329172022;Sindangheula
33;JAWATENGAH;3329;BREBES;332917;Banjarharjo;3329172023;Sukareja
33;JAWATENGAH;3329;BREBES;332917;Banjarharjo;3329172024;Tegalreja
33;JAWATENGAH;3329;BREBES;332917;Banjarharjo;3329172025;Tiwulandu